<?xml version="1.0" standalone="no"?>
<!DOCTYPE svg PUBLIC "-//W3C//DTD SVG 20010904//EN"
 "http://www.w3.org/TR/2001/REC-SVG-20010904/DTD/svg10.dtd">
<svg version="1.0" xmlns="http://www.w3.org/2000/svg"
 width="925.000000pt" height="640.000000pt" viewBox="0 0 925.000000 640.000000"
 preserveAspectRatio="xMidYMid meet">
<metadata>
Created by potrace 1.15, written by Peter Selinger 2001-2017
</metadata>
<g transform="translate(0.000000,640.000000) scale(0.100000,-0.100000)"
fill="#000000" stroke="none">
<path d="M2652 6068 c-2 -64 -3 -67 -29 -71 l-28 -4 28 -2 27 -1 0 -139 0
-140 -27 -4 -28 -4 28 -2 27 -1 0 -139 0 -140 -27 -4 -28 -4 28 -2 27 -1 0
-129 0 -130 -27 -4 -28 -4 28 -2 27 -1 0 -139 0 -140 -27 -4 -28 -4 28 -2 27
-1 0 -139 0 -140 -27 -4 -28 -4 28 -2 27 -1 0 -134 c0 -132 0 -135 -22 -139
l-23 -4 23 -2 c22 -1 22 -3 22 -135 l0 -135 -27 -4 -28 -4 28 -2 27 -1 0 -139
0 -140 -27 -4 -28 -4 28 -2 27 -1 0 -134 0 -135 -27 -4 -28 -4 28 -2 27 -1 0
-279 0 -280 -27 -4 -28 -4 28 -2 27 -1 0 -134 0 -135 -27 -4 -28 -4 28 -2 27
-1 0 -139 0 -140 -27 -4 -28 -4 28 -2 27 -1 0 -134 c0 -132 0 -135 -22 -139
l-23 -4 23 -2 c22 -1 22 -3 22 -135 l0 -135 -27 -4 -28 -4 28 -2 27 -1 0 -139
0 -140 -27 -4 -28 -4 28 -2 27 -1 0 -139 0 -140 -27 -4 -28 -4 28 -2 27 -1 0
-129 0 -130 -27 -4 -28 -4 28 -2 27 -1 0 -139 0 -140 -27 -4 -28 -4 28 -2 27
-1 1 -102 c1 -58 4 -90 8 -73 3 17 4 1310 1 2875 -3 1565 -6 2815 -8 2778z"/>
</g>
</svg>
